<?xml version="1.0" encoding="UTF-8" standalone="no"?>
<!-- Created with Inkscape (http://www.inkscape.org/) -->

<svg
   xmlns:dc="http://purl.org/dc/elements/1.1/"
   xmlns:cc="http://creativecommons.org/ns#"
   xmlns:rdf="http://www.w3.org/1999/02/22-rdf-syntax-ns#"
   xmlns:svg="http://www.w3.org/2000/svg"
   xmlns="http://www.w3.org/2000/svg"
   xmlns:sodipodi="http://sodipodi.sourceforge.net/DTD/sodipodi-0.dtd"
   xmlns:inkscape="http://www.inkscape.org/namespaces/inkscape"
   width="300"
   height="400"
   viewBox="0 0 300 400.00001"
   id="svg2"
   version="1.1"
   inkscape:version="0.91 r13725"
   sodipodi:docname="00-new.svg"
   inkscape:export-filename="/home/kfickel/Dokumente/source/LA-VM/img/komm_diagramm4.png"
   inkscape:export-xdpi="90"
   inkscape:export-ydpi="90">
  <sodipodi:namedview
     id="base"
     pagecolor="#ffffff"
     bordercolor="#666666"
     borderopacity="1.0"
     inkscape:pageopacity="0.0"
     inkscape:pageshadow="2"
     inkscape:zoom="0.49497475"
     inkscape:cx="-75.871725"
     inkscape:cy="129.97211"
     inkscape:document-units="px"
     inkscape:current-layer="layer1"
     showgrid="false"
     units="px"
     inkscape:window-width="1366"
     inkscape:window-height="704"
     inkscape:window-x="0"
     inkscape:window-y="27"
     inkscape:window-maximized="1" />
  <defs
     id="defs4">
    <marker
       inkscape:isstock="true"
       style="overflow:visible"
       id="marker9014"
       refX="0"
       refY="0"
       orient="auto"
       inkscape:stockid="TriangleOutM"
       inkscape:collect="always">
      <path
         transform="scale(0.4,0.4)"
         style="fill:#000000;fill-opacity:1;fill-rule:evenodd;stroke:#000000;stroke-width:1pt;stroke-opacity:1"
         d="m 5.77,0 -8.65,5 0,-10 8.65,5 z"
         id="path9016"
         inkscape:connector-curvature="0" />
    </marker>
    <marker
       inkscape:isstock="true"
       style="overflow:visible"
       id="marker9014-7"
       refX="0"
       refY="0"
       orient="auto"
       inkscape:stockid="TriangleOutM"
       inkscape:collect="always">
      <path
         transform="scale(0.4,0.4)"
         style="fill:#000000;fill-opacity:1;fill-rule:evenodd;stroke:#000000;stroke-width:1pt;stroke-opacity:1"
         d="m 5.77,0 -8.65,5 0,-10 8.65,5 z"
         id="path9016-6"
         inkscape:connector-curvature="0" />
    </marker>
    <marker
       inkscape:isstock="true"
       style="overflow:visible"
       id="marker9014-7-7"
       refX="0"
       refY="0"
       orient="auto"
       inkscape:stockid="TriangleOutM"
       inkscape:collect="always">
      <path
         transform="scale(0.4,0.4)"
         style="fill:#000000;fill-opacity:1;fill-rule:evenodd;stroke:#000000;stroke-width:1pt;stroke-opacity:1"
         d="m 5.77,0 -8.65,5 0,-10 8.65,5 z"
         id="path9016-6-8"
         inkscape:connector-curvature="0" />
    </marker>
  </defs>
  <metadata
     id="metadata7">
    <rdf:RDF>
      <cc:Work
         rdf:about="">
        <dc:format>image/svg+xml</dc:format>
        <dc:type
           rdf:resource="http://purl.org/dc/dcmitype/StillImage" />
        <dc:title></dc:title>
      </cc:Work>
    </rdf:RDF>
  </metadata>
  <g
     inkscape:label="Ebene 1"
     inkscape:groupmode="layer"
     id="layer1"
     transform="translate(0,-652.36196)">
    <path
       inkscape:connector-curvature="0"
       id="path9012"
       d="m 84.836926,696.59907 117.250724,0"
       style="fill:none;fill-rule:evenodd;stroke:#000000;stroke-width:3;stroke-linecap:butt;stroke-linejoin:miter;stroke-miterlimit:4;stroke-dasharray:none;stroke-opacity:1;marker-end:url(#marker9014)" />
    <g
       transform="matrix(0.54199527,0,0,0.54199527,-541.68105,479.54171)"
       id="g3341">
      <g
         style="font-style:normal;font-variant:normal;font-weight:normal;font-stretch:normal;letter-spacing:normal;word-spacing:normal;text-anchor:start;fill:none;fill-opacity:1;fill-rule:evenodd;stroke:#000000;stroke-linecap:butt;stroke-linejoin:miter;stroke-miterlimit:10.43299961;stroke-dasharray:none;stroke-dashoffset:0;stroke-opacity:1"
         id="content-6"
         transform="matrix(1.0629921,0,0,-1.0629921,-186.02362,789.27165)"
         xml:space="preserve"
         stroke-miterlimit="10.433"
         font-style="normal"
         font-variant="normal"
         font-weight="normal"
         font-stretch="normal"
         font-size-adjust="none"
         letter-spacing="normal"
         word-spacing="normal"><path
           style="fill:#000000;stroke-width:0"
           inkscape:connector-curvature="0"
           d="m 1251.3,374.79 0.2,0.35 0.3,0.33 0.2,0.31 0.2,0.3 0.2,0.27 0.3,0.25 0.2,0.24 0.2,0.22 0.2,0.2 0.2,0.19 0.2,0.17 0.2,0.16 0.2,0.14 0.2,0.13 0.2,0.12 0.2,0.11 0.2,0.09 0.2,0.09 0.2,0.07 0.2,0.07 0.2,0.06 0.2,0.05 0.2,0.04 0.2,0.04 0.2,0.03 0.1,0.02 0.4,0.04 0.4,0.03 0.3,0.02 c 0.6,0.04 0.6,0.89 0.6,0.95 0,0.39 -0.2,0.59 -0.6,0.59 -1.3,0 -2.7,-0.15 -4.1,-0.15 -1.6,0 -3.3,0.15 -4.9,0.15 -0.3,0 -1,0 -1,-0.95 0,-0.55 0.5,-0.59 0.8,-0.59 1.4,-0.1 2.3,-0.6 2.3,-1.64 0,-0.75 -0.7,-1.85 -0.7,-1.9 l -15.3,-24.31 -3.4,26.35 c 0,0.84 1.1,1.5 3.4,1.5 0.7,0 1.3,0 1.3,1 0,0.43 -0.4,0.54 -0.7,0.54 -2,0 -4.2,-0.15 -6.2,-0.15 -0.9,0 -1.8,0.04 -2.7,0.04 -0.9,0 -1.9,0.11 -2.7,0.11 -0.4,0 -1,0 -1,-0.95 0,-0.59 0.5,-0.59 1.3,-0.59 2.8,0 2.8,-0.46 3,-1.69 l 3.9,-30.75 c 0.2,-1 0.3,-1.14 1,-1.14 0.8,0 1,0.25 1.4,0.89 z"
           id="path3344" /></g>    </g>
    <g
       transform="matrix(0.54199527,0,0,0.54199527,-466.05599,456.85209)"
       id="g3386">
      <g
         style="font-style:normal;font-variant:normal;font-weight:normal;font-stretch:normal;letter-spacing:normal;word-spacing:normal;text-anchor:start;fill:none;fill-opacity:1;fill-rule:evenodd;stroke:#000000;stroke-linecap:butt;stroke-linejoin:miter;stroke-miterlimit:10.43299961;stroke-dasharray:none;stroke-dashoffset:0;stroke-opacity:1"
         id="g3388"
         transform="matrix(1.0629921,0,0,-1.0629921,-186.02362,789.27165)"
         xml:space="preserve"
         stroke-miterlimit="10.433"
         font-style="normal"
         font-variant="normal"
         font-weight="normal"
         font-stretch="normal"
         font-size-adjust="none"
         letter-spacing="normal"
         word-spacing="normal"><path
           style="fill:#000000;stroke-width:0"
           inkscape:connector-curvature="0"
           d="m 1243.5,366.36 4.3,0 c 1,0 1.5,0 1.5,1 0,0.55 -0.5,0.55 -1.4,0.55 l -4.1,0 1,5.69 c 0.2,1.04 0.9,4.58 1.2,5.17 0.5,0.95 1.3,1.7 2.4,1.7 0.2,0 1.5,0 2.4,-0.9 -2.2,-0.19 -2.7,-1.94 -2.7,-2.69 0,-1.14 0.9,-1.74 1.9,-1.74 1.3,0 2.7,1.1 2.7,2.99 0,2.3 -2.3,3.44 -4.3,3.44 -1.7,0 -4.9,-0.89 -6.4,-5.83 -0.2,-1.05 -0.4,-1.55 -1.6,-7.83 l -3.4,0 c -1,0 -1.5,0 -1.5,-0.94 0,-0.61 0.4,-0.61 1.4,-0.61 l 3.3,0 -3.8,-19.67 c -0.9,-4.83 -1.7,-9.37 -4.3,-9.37 -0.2,0 -1.5,0 -2.4,0.9 2.3,0.14 2.7,1.94 2.7,2.69 0,1.14 -0.9,1.75 -1.8,1.75 -1.3,0 -2.8,-1.09 -2.8,-3 0,-2.23 2.2,-3.44 4.3,-3.44 2.7,0 4.7,2.94 5.6,4.85 1.6,3.14 2.7,9.15 2.8,9.51 z"
           id="path3390" /></g>    </g>
    <g
       id="g3634"
       transform="matrix(0.54199527,0,0,0.54199527,-580.93872,732.1747)">
      <g
         word-spacing="normal"
         letter-spacing="normal"
         font-size-adjust="none"
         font-stretch="normal"
         font-weight="normal"
         font-variant="normal"
         font-style="normal"
         stroke-miterlimit="10.433"
         xml:space="preserve"
         transform="matrix(1.0629921,0,0,-1.0629921,-186.02362,789.27165)"
         id="g3636"
         style="font-style:normal;font-variant:normal;font-weight:normal;font-stretch:normal;letter-spacing:normal;word-spacing:normal;text-anchor:start;fill:none;fill-opacity:1;fill-rule:evenodd;stroke:#000000;stroke-linecap:butt;stroke-linejoin:miter;stroke-miterlimit:10.43299961;stroke-dasharray:none;stroke-dashoffset:0;stroke-opacity:1"><polygon
           id="polygon3638"
           points="1200.3,333.99 1200.3,335.97 1195.5,335.97 1195.5,381.82 1200.3,381.82 1200.3,383.8 1193.5,383.8 1193.5,333.99 "
           style="fill:#000000;stroke-width:0" /><path
           id="path3640"
           d="m 1215.6,377.58 0,0.1 0,0.09 0,0.09 0,0.09 -0.1,0.08 0,0.09 0,0.08 0,0.08 -0.1,0.08 0,0.08 0,0.08 -0.1,0.07 0,0.07 -0.1,0.07 0,0.06 -0.1,0.07 -0.1,0.05 0,0.06 -0.1,0.05 -0.1,0.05 0,0.05 -0.1,0.04 -0.1,0.04 -0.1,0.04 -0.1,0.03 -0.1,0.03 0,0.02 -0.1,0.02 -0.1,0.02 -0.1,0.01 -0.1,0.01 -0.1,0 c -1.4,0 -2.7,-1.3 -2.7,-2.64 0,-0.95 0.7,-1.8 1.8,-1.8 1.2,0 2.7,1.14 2.7,2.64 z"
           inkscape:connector-curvature="0"
           style="fill:#000000;stroke-width:0" /><path
           id="path3642"
           d="m 1211.8,358.85 0.1,0.13 0,0.12 0.1,0.12 0,0.11 0,0.1 0.1,0.1 0,0.1 0,0.09 0.1,0.08 0,0.08 0,0.08 0.1,0.08 0,0.07 0,0.08 0.1,0.14 0,0.14 0.1,0.14 0,0.08 0,0.07 0.1,0.08 0,0.08 0,0.09 0.1,0.09 0,0.09 0,0.1 0.1,0.1 0,0.11 0,0.12 0.1,0.12 c 0.4,1 0.7,1.69 0.7,2.64 0,2.23 -1.7,4.08 -4.2,4.08 -4.6,0 -6.5,-7.22 -6.5,-7.67 0,-0.5 0.5,-0.5 0.6,-0.5 0.5,0 0.5,0.1 0.8,0.9 1.3,4.69 3.3,6.17 5,6.17 0.4,0 1.3,0 1.3,-1.59 0,-1.05 -0.4,-2.09 -0.6,-2.59 -0.4,-1.3 -2.6,-7.07 -3.4,-9.22 -0.5,-1.28 -1.2,-2.94 -1.2,-3.99 0,-2.33 1.7,-4.08 4.1,-4.08 4.7,0 6.5,7.22 6.5,7.68 0,0.5 -0.4,0.5 -0.6,0.5 -0.5,0 -0.5,-0.16 -0.7,-0.91 -0.9,-3.12 -2.5,-6.17 -5.1,-6.17 -0.8,0 -1.2,0.5 -1.2,1.64 0,1.25 0.3,1.95 1.5,4.98 z"
           inkscape:connector-curvature="0"
           style="fill:#000000;stroke-width:0" /><path
           id="path3644"
           d="m 1244.3,380.47 0,0.01 0,0 0,0.01 0,0.01 0,0.01 0,0.01 0,0.02 0,0.02 0,0.02 0,0.02 0,0.02 0,0.02 0,0.03 0,0.02 -0.1,0.02 0,0.03 0,0.02 0,0.03 0,0.02 0,0.03 -0.1,0.02 0,0.01 0,0.01 0,0.01 0,0.01 0,0.01 0,0.01 -0.1,0.01 0,0.01 0,0.01 0,0.01 0,0.01 0,0 -0.1,0.01 0,0.01 0,0 0,0.01 -0.1,0 0,0.01 0,0 0,0 -0.1,0.01 0,0 0,0 0,0 c -0.8,0 -5.5,-0.45 -6.4,-0.55 -0.4,-0.04 -0.7,-0.29 -0.7,-0.95 0,-0.59 0.5,-0.59 1.2,-0.59 2.4,0 2.5,-0.35 2.5,-0.85 l -0.1,-1 -3,-11.81 c -0.9,1.84 -2.4,3.19 -4.6,3.19 l 0,-1.1 c 3.3,0 4,-4.07 4,-4.37 0,-0.31 -0.1,-0.61 -0.2,-0.86 l -2.5,-9.77 c -0.2,-0.89 -0.2,-0.98 -1,-1.84 -2.1,-2.73 -4.2,-3.53 -5.6,-3.53 -2.5,0 -3.2,2.73 -3.2,4.69 0,2.48 1.6,8.61 2.8,10.9 1.5,2.94 3.8,4.78 5.7,4.78 l 0,1.1 c -5.8,0 -12,-7.32 -12,-14.6 0,-4.68 2.7,-7.97 6.6,-7.97 1,0 3.5,0.21 6.5,3.74 0.4,-2.09 2.1,-3.74 4.5,-3.74 1.8,0 2.9,1.15 3.7,2.74 0.9,1.8 1.5,4.84 1.5,4.94 0,0.5 -0.5,0.5 -0.6,0.5 -0.5,0 -0.5,-0.21 -0.7,-0.91 -0.8,-3.23 -1.7,-6.17 -3.8,-6.17 -1.3,0 -1.5,1.3 -1.5,2.3 0,1.18 0.1,1.54 0.3,2.39 z"
           inkscape:connector-curvature="0"
           style="fill:#000000;stroke-width:0" /><polygon
           id="polygon3646"
           points="1252.4,383.8 1245.6,383.8 1245.6,381.82 1250.4,381.82 1250.4,335.97 1245.6,335.97 1245.6,333.99 1252.4,333.99 "
           style="fill:#000000;stroke-width:0" /><path
           id="path3648"
           d="m 1283.2,403.73 -0.1,-0.1 -0.1,-0.09 -0.1,-0.09 -0.1,-0.09 -0.1,-0.09 -0.1,-0.08 -0.1,-0.09 -0.1,-0.07 -0.1,-0.08 -0.1,-0.07 -0.1,-0.06 -0.1,-0.07 -0.1,-0.06 -0.1,-0.06 -0.1,-0.05 0,-0.05 -0.1,-0.05 -0.1,-0.05 -0.1,-0.04 -0.1,-0.04 -0.1,-0.04 -0.1,-0.03 -0.1,-0.03 -0.1,-0.03 -0.1,-0.02 -0.1,-0.02 -0.1,-0.02 -0.1,-0.01 -0.1,-0.01 0,-0.01 -0.1,0 -0.1,-0.01 c -0.9,0 -2,0.54 -2.3,0.71 -1.2,0.59 -2,0.9 -2.7,0.9 -1.4,0 -2,-0.56 -4.2,-2.79 l 0.8,-0.69 c 1,1.08 2,1.59 2.9,1.59 0.9,0 2,-0.51 2.3,-0.68 1.2,-0.6 1.9,-0.91 2.7,-0.91 1.5,0 2,0.55 4.2,2.78 z"
           inkscape:connector-curvature="0"
           style="fill:#000000;stroke-width:0" /><path
           id="path3650"
           d="m 1264.9,374.12 0,-0.11 0,-0.11 0,-0.09 -0.1,-0.1 0,-0.09 0,-0.08 -0.1,-0.08 0,-0.07 0,-0.07 -0.1,-0.07 0,-0.06 -0.1,-0.06 0,-0.05 -0.1,-0.05 0,-0.05 -0.1,-0.04 -0.1,-0.04 -0.1,-0.04 -0.1,-0.03 -0.1,-0.03 -0.1,-0.03 0,-0.01 -0.1,-0.01 -0.1,-0.01 0,-0.01 -0.1,-0.01 -0.1,-0.01 0,-0.01 -0.1,0 -0.1,-0.01 -0.1,-0.01 -0.1,0 -0.1,-0.01 0,0 -0.1,-0.01 -0.1,0 -0.1,0 -0.1,-0.01 -0.2,0 -0.1,0 -0.1,0 -0.1,0 -0.1,0 c -0.6,0 -1.1,0 -1.1,-0.74 0,-0.51 0.4,-0.51 1.1,-0.51 l 13.4,0 c 5.9,0 10.4,4 10.4,7.45 0,2.49 -2.3,4.61 -6,4.99 4.3,0.76 7.8,3.42 7.8,6.4 0,2.66 -2.7,4.96 -7.2,4.96 l -0.6,-1.25 c 3.6,0 4.4,-2.35 4.4,-3.66 0,-2.83 -3.2,-6.03 -7.9,-6.03 l -5.7,0 -0.2,-0.99 7.4,0 c 3.2,0 4.5,-2.15 4.5,-4.17 0,-3.45 -3.5,-6.45 -7.7,-6.45 l -5.7,0 c -1,0 -1.1,0.05 -1.1,0.36 0,0.03 0,0.2 0.2,0.72 l 2.4,9.54 0.2,0.99 2.2,8.5 c 0.2,1.08 0.3,1.19 1.7,1.19 l 5.3,0 0.6,1.25 -12.7,0 c -0.7,0 -1.1,0 -1.1,-0.77 0,-0.48 0.4,-0.48 1.1,-0.48 0,0 0.7,0 1.3,-0.08 0.8,-0.07 0.8,-0.14 0.8,-0.49 0,-0.06 0,-0.23 -0.1,-0.76 z"
           inkscape:connector-curvature="0"
           style="fill:#000000;stroke-width:0" /><path
           id="path3652"
           d="m 1264.9,334.16 0,-0.11 0,-0.1 0,-0.1 -0.1,-0.09 0,-0.09 0,-0.09 -0.1,-0.08 0,-0.07 0,-0.07 -0.1,-0.07 0,-0.06 -0.1,-0.06 0,-0.05 -0.1,-0.05 0,-0.05 -0.1,-0.04 -0.1,-0.04 -0.1,-0.03 -0.1,-0.04 -0.1,-0.03 -0.1,-0.02 0,-0.02 -0.1,-0.01 -0.1,-0.01 0,-0.01 -0.1,-0.01 -0.1,-0.01 0,0 -0.1,-0.01 -0.1,-0.01 -0.1,-0.01 -0.1,0 -0.1,-0.01 0,0 -0.1,0 -0.1,-0.01 -0.1,0 -0.1,0 -0.2,-0.01 -0.1,0 -0.1,0 -0.1,0 -0.1,0 c -0.6,0 -1.1,0 -1.1,-0.73 0,-0.52 0.4,-0.52 1.1,-0.52 l 13.4,0 c 5.9,0 10.4,4 10.4,7.45 0,2.49 -2.3,4.61 -6,4.99 4.3,0.76 7.8,3.42 7.8,6.41 0,2.65 -2.7,4.95 -7.2,4.95 l -0.6,-1.25 c 3.6,0 4.4,-2.35 4.4,-3.66 0,-2.83 -3.2,-6.03 -7.9,-6.03 l -5.7,0 -0.2,-0.98 7.4,0 c 3.2,0 4.5,-2.16 4.5,-4.18 0,-3.45 -3.5,-6.45 -7.7,-6.45 l -5.7,0 c -1,0 -1.1,0.05 -1.1,0.36 0,0.03 0,0.2 0.2,0.72 l 2.4,9.55 0.2,0.98 2.2,8.5 c 0.2,1.08 0.3,1.19 1.7,1.19 l 5.3,0 0.6,1.25 -12.7,0 c -0.7,0 -1.1,0 -1.1,-0.77 0,-0.48 0.4,-0.48 1.1,-0.48 0,0 0.7,0 1.3,-0.08 0.8,-0.06 0.8,-0.14 0.8,-0.48 0,-0.07 0,-0.24 -0.1,-0.77 z"
           inkscape:connector-curvature="0"
           style="fill:#000000;stroke-width:0" /></g>    </g>
    <g
       transform="matrix(0.54199527,0,0,0.54199527,-346.80857,729.14535)"
       id="g3732">
      <g
         style="font-style:normal;font-variant:normal;font-weight:normal;font-stretch:normal;letter-spacing:normal;word-spacing:normal;text-anchor:start;fill:none;fill-opacity:1;fill-rule:evenodd;stroke:#000000;stroke-linecap:butt;stroke-linejoin:miter;stroke-miterlimit:10.43299961;stroke-dasharray:none;stroke-dashoffset:0;stroke-opacity:1"
         id="g3734"
         transform="matrix(1.0629921,0,0,-1.0629921,-186.02362,789.27165)"
         xml:space="preserve"
         stroke-miterlimit="10.433"
         font-style="normal"
         font-variant="normal"
         font-weight="normal"
         font-stretch="normal"
         font-size-adjust="none"
         letter-spacing="normal"
         word-spacing="normal"><polygon
           style="fill:#000000;stroke-width:0"
           points="1200.3,335.97 1195.5,335.97 1195.5,381.82 1200.3,381.82 1200.3,383.8 1193.5,383.8 1193.5,333.99 1200.3,333.99 "
           id="polygon3736" /><path
           style="fill:#000000;stroke-width:0"
           inkscape:connector-curvature="0"
           d="m 1215.6,377.58 0,0.1 0,0.09 0,0.09 0,0.09 -0.1,0.08 0,0.09 0,0.08 0,0.08 -0.1,0.08 0,0.08 0,0.08 -0.1,0.07 0,0.07 -0.1,0.07 0,0.06 -0.1,0.07 -0.1,0.05 0,0.06 -0.1,0.05 -0.1,0.05 0,0.05 -0.1,0.04 -0.1,0.04 -0.1,0.04 -0.1,0.03 -0.1,0.03 0,0.02 -0.1,0.02 -0.1,0.02 -0.1,0.01 -0.1,0.01 -0.1,0 c -1.4,0 -2.7,-1.3 -2.7,-2.64 0,-0.95 0.7,-1.8 1.8,-1.8 1.2,0 2.7,1.14 2.7,2.64 z"
           id="path3738" /><path
           style="fill:#000000;stroke-width:0"
           inkscape:connector-curvature="0"
           d="m 1211.8,358.85 0.1,0.13 0,0.12 0.1,0.12 0,0.11 0,0.1 0.1,0.1 0,0.1 0,0.09 0.1,0.08 0,0.08 0,0.08 0.1,0.08 0,0.07 0,0.08 0.1,0.14 0,0.14 0.1,0.14 0,0.08 0,0.07 0.1,0.08 0,0.08 0,0.09 0.1,0.09 0,0.09 0,0.1 0.1,0.1 0,0.11 0,0.12 0.1,0.12 c 0.4,1 0.7,1.69 0.7,2.64 0,2.23 -1.7,4.08 -4.2,4.08 -4.6,0 -6.5,-7.22 -6.5,-7.67 0,-0.5 0.5,-0.5 0.6,-0.5 0.5,0 0.5,0.1 0.8,0.9 1.3,4.69 3.3,6.17 5,6.17 0.4,0 1.3,0 1.3,-1.59 0,-1.05 -0.4,-2.09 -0.6,-2.59 -0.4,-1.3 -2.6,-7.07 -3.4,-9.22 -0.5,-1.28 -1.2,-2.94 -1.2,-3.99 0,-2.33 1.7,-4.08 4.1,-4.08 4.7,0 6.5,7.22 6.5,7.68 0,0.5 -0.4,0.5 -0.6,0.5 -0.5,0 -0.5,-0.16 -0.7,-0.91 -0.9,-3.12 -2.5,-6.17 -5.1,-6.17 -0.8,0 -1.2,0.5 -1.2,1.64 0,1.25 0.3,1.95 1.5,4.98 z"
           id="path3740" /><path
           style="fill:#000000;stroke-width:0"
           inkscape:connector-curvature="0"
           d="m 1244.3,380.47 0,0.01 0,0 0,0.01 0,0.01 0,0.01 0,0.01 0,0.02 0,0.02 0,0.02 0,0.02 0,0.02 0,0.02 0,0.03 0,0.02 -0.1,0.02 0,0.03 0,0.02 0,0.03 0,0.02 0,0.03 -0.1,0.02 0,0.01 0,0.01 0,0.01 0,0.01 0,0.01 0,0.01 -0.1,0.01 0,0.01 0,0.01 0,0.01 0,0.01 0,0 -0.1,0.01 0,0.01 0,0 0,0.01 -0.1,0 0,0.01 0,0 0,0 -0.1,0.01 0,0 0,0 0,0 c -0.8,0 -5.5,-0.45 -6.4,-0.55 -0.4,-0.04 -0.7,-0.29 -0.7,-0.95 0,-0.59 0.5,-0.59 1.2,-0.59 2.4,0 2.5,-0.35 2.5,-0.85 l -0.1,-1 -3,-11.81 c -0.9,1.84 -2.4,3.19 -4.6,3.19 l 0,-1.1 c 3.3,0 4,-4.07 4,-4.37 0,-0.31 -0.1,-0.61 -0.2,-0.86 l -2.5,-9.77 c -0.2,-0.89 -0.2,-0.98 -1,-1.84 -2.1,-2.73 -4.2,-3.53 -5.6,-3.53 -2.5,0 -3.2,2.73 -3.2,4.69 0,2.48 1.6,8.61 2.8,10.9 1.5,2.94 3.8,4.78 5.7,4.78 l 0,1.1 c -5.8,0 -12,-7.32 -12,-14.6 0,-4.68 2.7,-7.97 6.6,-7.97 1,0 3.5,0.21 6.5,3.74 0.4,-2.09 2.1,-3.74 4.5,-3.74 1.8,0 2.9,1.15 3.7,2.74 0.9,1.8 1.5,4.84 1.5,4.94 0,0.5 -0.5,0.5 -0.6,0.5 -0.5,0 -0.5,-0.21 -0.7,-0.91 -0.8,-3.23 -1.7,-6.17 -3.8,-6.17 -1.3,0 -1.5,1.3 -1.5,2.3 0,1.18 0.1,1.54 0.3,2.39 z"
           id="path3742" /><polygon
           style="fill:#000000;stroke-width:0"
           points="1245.6,383.8 1245.6,381.82 1250.4,381.82 1250.4,335.97 1245.6,335.97 1245.6,333.99 1252.4,333.99 1252.4,383.8 "
           id="polygon3744" /><path
           style="fill:#000000;stroke-width:0"
           inkscape:connector-curvature="0"
           d="m 1264.9,374.12 0,-0.11 0,-0.11 0,-0.09 -0.1,-0.1 0,-0.09 0,-0.08 -0.1,-0.08 0,-0.07 0,-0.07 -0.1,-0.07 0,-0.06 -0.1,-0.06 0,-0.05 -0.1,-0.05 0,-0.05 -0.1,-0.04 -0.1,-0.04 -0.1,-0.04 -0.1,-0.03 -0.1,-0.03 -0.1,-0.03 0,-0.01 -0.1,-0.01 -0.1,-0.01 0,-0.01 -0.1,-0.01 -0.1,-0.01 0,-0.01 -0.1,0 -0.1,-0.01 -0.1,-0.01 -0.1,0 -0.1,-0.01 0,0 -0.1,-0.01 -0.1,0 -0.1,0 -0.1,-0.01 -0.2,0 -0.1,0 -0.1,0 -0.1,0 -0.1,0 c -0.6,0 -1.1,0 -1.1,-0.74 0,-0.51 0.4,-0.51 1.1,-0.51 l 13.4,0 c 5.9,0 10.4,4 10.4,7.45 0,2.49 -2.3,4.61 -6,4.99 4.3,0.76 7.8,3.42 7.8,6.4 0,2.66 -2.7,4.96 -7.2,4.96 l -0.6,-1.25 c 3.6,0 4.4,-2.35 4.4,-3.66 0,-2.83 -3.2,-6.03 -7.9,-6.03 l -5.7,0 -0.2,-0.99 7.4,0 c 3.2,0 4.5,-2.15 4.5,-4.17 0,-3.45 -3.5,-6.45 -7.7,-6.45 l -5.7,0 c -1,0 -1.1,0.05 -1.1,0.36 0,0.03 0,0.2 0.2,0.72 l 2.4,9.54 0.2,0.99 2.2,8.5 c 0.2,1.08 0.3,1.19 1.7,1.19 l 5.3,0 0.6,1.25 -12.7,0 c -0.7,0 -1.1,0 -1.1,-0.77 0,-0.48 0.4,-0.48 1.1,-0.48 0,0 0.7,0 1.3,-0.08 0.8,-0.07 0.8,-0.14 0.8,-0.49 0,-0.06 0,-0.23 -0.1,-0.76 z"
           id="path3746" /><path
           style="fill:#000000;stroke-width:0"
           inkscape:connector-curvature="0"
           d="m 1283.2,363.53 -0.1,-0.1 -0.1,-0.09 -0.1,-0.1 -0.1,-0.09 -0.1,-0.08 -0.1,-0.09 -0.1,-0.08 -0.1,-0.08 -0.1,-0.07 -0.1,-0.07 -0.1,-0.07 -0.1,-0.06 -0.1,-0.06 -0.1,-0.06 -0.1,-0.06 0,-0.05 -0.1,-0.05 -0.1,-0.04 -0.1,-0.04 -0.1,-0.04 -0.1,-0.04 -0.1,-0.03 -0.1,-0.03 -0.1,-0.03 -0.1,-0.02 -0.1,-0.02 -0.1,-0.02 -0.1,-0.01 -0.1,-0.01 0,-0.01 -0.1,-0.01 -0.1,0 c -0.9,0 -2,0.53 -2.3,0.7 -1.2,0.6 -2,0.91 -2.7,0.91 -1.4,0 -2,-0.56 -4.2,-2.8 l 0.8,-0.68 c 1,1.07 2,1.59 2.9,1.59 0.9,0 2,-0.52 2.3,-0.69 1.2,-0.59 1.9,-0.9 2.7,-0.9 1.5,0 2,0.54 4.2,2.78 z"
           id="path3748" /><path
           style="fill:#000000;stroke-width:0"
           inkscape:connector-curvature="0"
           d="m 1264.9,333.92 0,-0.11 0,-0.1 0,-0.1 -0.1,-0.1 0,-0.08 0,-0.09 -0.1,-0.08 0,-0.07 0,-0.07 -0.1,-0.07 0,-0.06 -0.1,-0.06 0,-0.05 -0.1,-0.05 0,-0.05 -0.1,-0.04 -0.1,-0.04 -0.1,-0.04 -0.1,-0.03 -0.1,-0.03 -0.1,-0.03 0,-0.01 -0.1,-0.01 -0.1,-0.01 0,-0.01 -0.1,-0.01 -0.1,-0.01 0,-0.01 -0.1,0 -0.1,-0.01 -0.1,-0.01 -0.1,0 -0.1,-0.01 0,0 -0.1,-0.01 -0.1,0 -0.1,0 -0.1,-0.01 -0.2,0 -0.1,0 -0.1,0 -0.1,0 -0.1,0 c -0.6,0 -1.1,0 -1.1,-0.74 0,-0.51 0.4,-0.51 1.1,-0.51 l 13.4,0 c 5.9,0 10.4,4 10.4,7.45 0,2.49 -2.3,4.61 -6,4.99 4.3,0.76 7.8,3.42 7.8,6.4 0,2.66 -2.7,4.96 -7.2,4.96 l -0.6,-1.25 c 3.6,0 4.4,-2.35 4.4,-3.66 0,-2.83 -3.2,-6.03 -7.9,-6.03 l -5.7,0 -0.2,-0.99 7.4,0 c 3.2,0 4.5,-2.15 4.5,-4.17 0,-3.45 -3.5,-6.45 -7.7,-6.45 l -5.7,0 c -1,0 -1.1,0.05 -1.1,0.36 0,0.03 0,0.2 0.2,0.72 l 2.4,9.54 0.2,0.99 2.2,8.5 c 0.2,1.08 0.3,1.19 1.7,1.19 l 5.3,0 0.6,1.25 -12.7,0 c -0.7,0 -1.1,0 -1.1,-0.77 0,-0.48 0.4,-0.48 1.1,-0.48 0,0 0.7,0 1.3,-0.08 0.8,-0.06 0.8,-0.14 0.8,-0.49 0,-0.06 0,-0.23 -0.1,-0.76 z"
           id="path3750" /></g>    </g>
    <g
       transform="matrix(0.54199527,0,0,0.54199527,-466.20002,619.48665)"
       id="g3980">
      <g
         style="font-style:normal;font-variant:normal;font-weight:normal;font-stretch:normal;letter-spacing:normal;word-spacing:normal;text-anchor:start;fill:none;fill-opacity:1;fill-rule:evenodd;stroke:#000000;stroke-linecap:butt;stroke-linejoin:miter;stroke-miterlimit:10.43299961;stroke-dasharray:none;stroke-dashoffset:0;stroke-opacity:1"
         id="g3982"
         transform="matrix(1.0629921,0,0,-1.0629921,-186.02362,789.27165)"
         xml:space="preserve"
         stroke-miterlimit="10.433"
         font-style="normal"
         font-variant="normal"
         font-weight="normal"
         font-stretch="normal"
         font-size-adjust="none"
         letter-spacing="normal"
         word-spacing="normal"><polygon
           style="fill:#000000;stroke-width:0"
           points="1206.9,381.82 1206.9,383.8 1200.1,383.8 1200.1,333.99 1206.9,333.99 1206.9,335.97 1202.1,335.97 1202.1,381.82 "
           id="polygon3984" /><path
           style="fill:#000000;stroke-width:0"
           inkscape:connector-curvature="0"
           d="m 1226.4,366.36 4.3,0 c 1,0 1.5,0 1.5,1 0,0.55 -0.5,0.55 -1.3,0.55 l -4.2,0 1.1,5.69 c 0.2,1.04 0.9,4.58 1.2,5.17 0.4,0.95 1.3,1.7 2.3,1.7 0.2,0 1.5,0 2.5,-0.9 -2.2,-0.19 -2.7,-1.94 -2.7,-2.69 0,-1.14 0.9,-1.74 1.8,-1.74 1.3,0 2.8,1.1 2.8,2.99 0,2.3 -2.3,3.44 -4.4,3.44 -1.7,0 -4.8,-0.89 -6.3,-5.83 -0.3,-1.05 -0.4,-1.55 -1.6,-7.83 l -3.5,0 c -0.9,0 -1.5,0 -1.5,-0.94 0,-0.61 0.5,-0.61 1.4,-0.61 l 3.3,0 -3.7,-19.67 c -0.9,-4.83 -1.8,-9.37 -4.4,-9.37 -0.2,0 -1.4,0 -2.4,0.9 2.3,0.14 2.8,1.94 2.8,2.69 0,1.14 -0.9,1.75 -1.9,1.75 -1.3,0 -2.7,-1.09 -2.7,-3 0,-2.23 2.2,-3.44 4.2,-3.44 2.8,0 4.8,2.94 5.7,4.85 1.5,3.14 2.7,9.15 2.7,9.51 z"
           id="path3986" /><polygon
           style="fill:#000000;stroke-width:0"
           points="1243.8,335.97 1239,335.97 1239,333.99 1245.8,333.99 1245.8,383.8 1239,383.8 1239,381.82 1243.8,381.82 "
           id="polygon3988" /><path
           style="fill:#000000;stroke-width:0"
           inkscape:connector-curvature="0"
           d="m 1258.3,374.12 0,-0.11 0,-0.11 0,-0.09 -0.1,-0.1 0,-0.09 0,-0.08 -0.1,-0.08 0,-0.07 0,-0.07 -0.1,-0.07 0,-0.06 -0.1,-0.06 0,-0.05 -0.1,-0.05 0,-0.05 -0.1,-0.04 -0.1,-0.04 -0.1,-0.04 -0.1,-0.03 -0.1,-0.03 -0.1,-0.03 0,-0.01 -0.1,-0.01 -0.1,-0.01 0,-0.01 -0.1,-0.01 -0.1,-0.01 0,-0.01 -0.1,0 -0.1,-0.01 -0.1,-0.01 -0.1,0 -0.1,-0.01 0,0 -0.1,-0.01 -0.1,0 -0.1,0 -0.1,-0.01 -0.2,0 -0.1,0 -0.1,0 -0.1,0 -0.1,0 c -0.6,0 -1.1,0 -1.1,-0.74 0,-0.51 0.4,-0.51 1.1,-0.51 l 13.5,0 c 5.8,0 10.3,4 10.3,7.45 0,2.49 -2.3,4.61 -6,4.99 4.3,0.76 7.8,3.42 7.8,6.4 0,2.66 -2.7,4.96 -7.2,4.96 l -0.6,-1.25 c 3.6,0 4.4,-2.35 4.4,-3.66 0,-2.83 -3.2,-6.03 -7.9,-6.03 l -5.7,0 -0.2,-0.99 7.4,0 c 3.2,0 4.5,-2.15 4.5,-4.17 0,-3.45 -3.5,-6.45 -7.7,-6.45 l -5.7,0 c -1,0 -1.1,0.05 -1.1,0.36 0,0.03 0,0.2 0.2,0.72 l 2.4,9.54 0.2,0.99 2.2,8.5 c 0.2,1.08 0.3,1.19 1.7,1.19 l 5.3,0 0.6,1.25 -12.7,0 c -0.7,0 -1.1,0 -1.1,-0.77 0,-0.48 0.4,-0.48 1.1,-0.48 0,0 0.7,0 1.3,-0.08 0.8,-0.07 0.8,-0.14 0.8,-0.49 0,-0.06 0,-0.23 -0.1,-0.76 z"
           id="path3990" /><path
           style="fill:#000000;stroke-width:0"
           inkscape:connector-curvature="0"
           d="m 1258.3,334.16 0,-0.11 0,-0.1 0,-0.1 -0.1,-0.09 0,-0.09 0,-0.09 -0.1,-0.08 0,-0.07 0,-0.07 -0.1,-0.07 0,-0.06 -0.1,-0.06 0,-0.05 -0.1,-0.05 0,-0.05 -0.1,-0.04 -0.1,-0.04 -0.1,-0.03 -0.1,-0.04 -0.1,-0.03 -0.1,-0.02 0,-0.02 -0.1,-0.01 -0.1,-0.01 0,-0.01 -0.1,-0.01 -0.1,-0.01 0,0 -0.1,-0.01 -0.1,-0.01 -0.1,-0.01 -0.1,0 -0.1,-0.01 0,0 -0.1,0 -0.1,-0.01 -0.1,0 -0.1,0 -0.2,-0.01 -0.1,0 -0.1,0 -0.1,0 -0.1,0 c -0.6,0 -1.1,0 -1.1,-0.73 0,-0.52 0.4,-0.52 1.1,-0.52 l 13.5,0 c 5.8,0 10.3,4 10.3,7.45 0,2.49 -2.3,4.61 -6,4.99 4.3,0.76 7.8,3.42 7.8,6.41 0,2.65 -2.7,4.95 -7.2,4.95 l -0.6,-1.25 c 3.6,0 4.4,-2.35 4.4,-3.66 0,-2.83 -3.2,-6.03 -7.9,-6.03 l -5.7,0 -0.2,-0.98 7.4,0 c 3.2,0 4.5,-2.16 4.5,-4.18 0,-3.45 -3.5,-6.45 -7.7,-6.45 l -5.7,0 c -1,0 -1.1,0.05 -1.1,0.36 0,0.03 0,0.2 0.2,0.72 l 2.4,9.55 0.2,0.98 2.2,8.5 c 0.2,1.08 0.3,1.19 1.7,1.19 l 5.3,0 0.6,1.25 -12.7,0 c -0.7,0 -1.1,0 -1.1,-0.77 0,-0.48 0.4,-0.48 1.1,-0.48 0,0 0.7,0 1.3,-0.08 0.8,-0.06 0.8,-0.14 0.8,-0.48 0,-0.07 0,-0.24 -0.1,-0.77 z"
           id="path3992" /></g>    </g>
    <g
       transform="matrix(0.54199527,0,0,0.54199527,-466.20002,788.0958)"
       id="g4122">
      <g
         style="font-style:normal;font-variant:normal;font-weight:normal;font-stretch:normal;letter-spacing:normal;word-spacing:normal;text-anchor:start;fill:none;fill-opacity:1;fill-rule:evenodd;stroke:#000000;stroke-linecap:butt;stroke-linejoin:miter;stroke-miterlimit:10.43299961;stroke-dasharray:none;stroke-dashoffset:0;stroke-opacity:1"
         word-spacing="normal"
         letter-spacing="normal"
         font-size-adjust="none"
         font-stretch="normal"
         font-weight="normal"
         font-variant="normal"
         font-style="normal"
         stroke-miterlimit="10.433"
         xml:space="preserve"
         transform="matrix(1.0629921,0,0,-1.0629921,-186.02362,789.27165)"
         id="g4124"><polygon
           style="fill:#000000;stroke-width:0"
           id="polygon4126"
           points="1200.1,383.8 1200.1,333.99 1206.9,333.99 1206.9,335.97 1202.1,335.97 1202.1,381.82 1206.9,381.82 1206.9,383.8 " /><path
           style="fill:#000000;stroke-width:0"
           inkscape:connector-curvature="0"
           id="path4128"
           d="m 1226.4,366.36 4.3,0 c 1,0 1.5,0 1.5,1 0,0.55 -0.5,0.55 -1.3,0.55 l -4.2,0 1.1,5.69 c 0.2,1.04 0.9,4.58 1.2,5.17 0.4,0.95 1.3,1.7 2.3,1.7 0.2,0 1.5,0 2.5,-0.9 -2.2,-0.19 -2.7,-1.94 -2.7,-2.69 0,-1.14 0.9,-1.74 1.8,-1.74 1.3,0 2.8,1.1 2.8,2.99 0,2.3 -2.3,3.44 -4.4,3.44 -1.7,0 -4.8,-0.89 -6.3,-5.83 -0.3,-1.05 -0.4,-1.55 -1.6,-7.83 l -3.5,0 c -0.9,0 -1.5,0 -1.5,-0.94 0,-0.61 0.5,-0.61 1.4,-0.61 l 3.3,0 -3.7,-19.67 c -0.9,-4.83 -1.8,-9.37 -4.4,-9.37 -0.2,0 -1.4,0 -2.4,0.9 2.3,0.14 2.8,1.94 2.8,2.69 0,1.14 -0.9,1.75 -1.9,1.75 -1.3,0 -2.7,-1.09 -2.7,-3 0,-2.23 2.2,-3.44 4.2,-3.44 2.8,0 4.8,2.94 5.7,4.85 1.5,3.14 2.7,9.15 2.7,9.51 z" /><polygon
           style="fill:#000000;stroke-width:0"
           id="polygon4130"
           points="1239,333.99 1245.8,333.99 1245.8,383.8 1239,383.8 1239,381.82 1243.8,381.82 1243.8,335.97 1239,335.97 " /><path
           style="fill:#000000;stroke-width:0"
           inkscape:connector-curvature="0"
           id="path4132"
           d="m 1276.4,403.73 0,-0.1 -0.1,-0.09 -0.1,-0.09 -0.1,-0.09 -0.1,-0.09 -0.1,-0.08 -0.1,-0.09 -0.1,-0.07 -0.1,-0.08 -0.1,-0.07 -0.1,-0.06 -0.1,-0.07 -0.1,-0.06 -0.1,-0.06 -0.1,-0.05 -0.1,-0.05 -0.1,-0.05 -0.1,-0.05 0,-0.04 -0.1,-0.04 -0.1,-0.04 -0.1,-0.03 -0.1,-0.03 -0.1,-0.03 -0.1,-0.02 -0.1,-0.02 -0.1,-0.02 -0.1,-0.01 -0.1,-0.01 -0.1,-0.01 -0.1,0 -0.1,-0.01 c -0.9,0 -1.9,0.54 -2.2,0.71 -1.2,0.59 -2,0.9 -2.7,0.9 -1.5,0 -2,-0.56 -4.2,-2.79 l 0.7,-0.69 c 1,1.08 2,1.59 3,1.59 0.9,0 2,-0.51 2.2,-0.68 1.3,-0.6 2,-0.91 2.8,-0.91 1.4,0 1.9,0.55 4.2,2.78 z" /><path
           style="fill:#000000;stroke-width:0"
           inkscape:connector-curvature="0"
           id="path4134"
           d="m 1258.3,374.12 0,-0.11 0,-0.11 0,-0.09 -0.1,-0.1 0,-0.09 0,-0.08 -0.1,-0.08 0,-0.07 0,-0.07 -0.1,-0.07 0,-0.06 -0.1,-0.06 0,-0.05 -0.1,-0.05 0,-0.05 -0.1,-0.04 -0.1,-0.04 -0.1,-0.04 -0.1,-0.03 -0.1,-0.03 -0.1,-0.03 0,-0.01 -0.1,-0.01 -0.1,-0.01 0,-0.01 -0.1,-0.01 -0.1,-0.01 0,-0.01 -0.1,0 -0.1,-0.01 -0.1,-0.01 -0.1,0 -0.1,-0.01 0,0 -0.1,-0.01 -0.1,0 -0.1,0 -0.1,-0.01 -0.2,0 -0.1,0 -0.1,0 -0.1,0 -0.1,0 c -0.6,0 -1.1,0 -1.1,-0.74 0,-0.51 0.4,-0.51 1.1,-0.51 l 13.5,0 c 5.8,0 10.3,4 10.3,7.45 0,2.49 -2.3,4.61 -6,4.99 4.3,0.76 7.8,3.42 7.8,6.4 0,2.66 -2.7,4.96 -7.2,4.96 l -0.6,-1.25 c 3.6,0 4.4,-2.35 4.4,-3.66 0,-2.83 -3.2,-6.03 -7.9,-6.03 l -5.7,0 -0.2,-0.99 7.4,0 c 3.2,0 4.5,-2.15 4.5,-4.17 0,-3.45 -3.5,-6.45 -7.7,-6.45 l -5.7,0 c -1,0 -1.1,0.05 -1.1,0.36 0,0.03 0,0.2 0.2,0.72 l 2.4,9.54 0.2,0.99 2.2,8.5 c 0.2,1.08 0.3,1.19 1.7,1.19 l 5.3,0 0.6,1.25 -12.7,0 c -0.7,0 -1.1,0 -1.1,-0.77 0,-0.48 0.4,-0.48 1.1,-0.48 0,0 0.7,0 1.3,-0.08 0.8,-0.07 0.8,-0.14 0.8,-0.49 0,-0.06 0,-0.23 -0.1,-0.76 z" /><path
           style="fill:#000000;stroke-width:0"
           inkscape:connector-curvature="0"
           id="path4136"
           d="m 1276.4,363.53 0,-0.1 -0.1,-0.09 -0.1,-0.1 -0.1,-0.09 -0.1,-0.08 -0.1,-0.09 -0.1,-0.08 -0.1,-0.08 -0.1,-0.07 -0.1,-0.07 -0.1,-0.07 -0.1,-0.06 -0.1,-0.06 -0.1,-0.06 -0.1,-0.06 -0.1,-0.05 -0.1,-0.05 -0.1,-0.04 0,-0.04 -0.1,-0.04 -0.1,-0.04 -0.1,-0.03 -0.1,-0.03 -0.1,-0.03 -0.1,-0.02 -0.1,-0.02 -0.1,-0.02 -0.1,-0.01 -0.1,-0.01 -0.1,-0.01 -0.1,-0.01 -0.1,0 c -0.9,0 -1.9,0.53 -2.2,0.7 -1.2,0.6 -2,0.91 -2.7,0.91 -1.5,0 -2,-0.56 -4.2,-2.8 l 0.7,-0.68 c 1,1.07 2,1.59 3,1.59 0.9,0 2,-0.52 2.2,-0.69 1.3,-0.59 2,-0.9 2.8,-0.9 1.4,0 1.9,0.54 4.2,2.78 z" /><path
           style="fill:#000000;stroke-width:0"
           inkscape:connector-curvature="0"
           id="path4138"
           d="m 1258.3,333.92 0,-0.11 0,-0.1 0,-0.1 -0.1,-0.1 0,-0.08 0,-0.09 -0.1,-0.08 0,-0.07 0,-0.07 -0.1,-0.07 0,-0.06 -0.1,-0.06 0,-0.05 -0.1,-0.05 0,-0.05 -0.1,-0.04 -0.1,-0.04 -0.1,-0.04 -0.1,-0.03 -0.1,-0.03 -0.1,-0.03 0,-0.01 -0.1,-0.01 -0.1,-0.01 0,-0.01 -0.1,-0.01 -0.1,-0.01 0,-0.01 -0.1,0 -0.1,-0.01 -0.1,-0.01 -0.1,0 -0.1,-0.01 0,0 -0.1,-0.01 -0.1,0 -0.1,0 -0.1,-0.01 -0.2,0 -0.1,0 -0.1,0 -0.1,0 -0.1,0 c -0.6,0 -1.1,0 -1.1,-0.74 0,-0.51 0.4,-0.51 1.1,-0.51 l 13.5,0 c 5.8,0 10.3,4 10.3,7.45 0,2.49 -2.3,4.61 -6,4.99 4.3,0.76 7.8,3.42 7.8,6.4 0,2.66 -2.7,4.96 -7.2,4.96 l -0.6,-1.25 c 3.6,0 4.4,-2.35 4.4,-3.66 0,-2.83 -3.2,-6.03 -7.9,-6.03 l -5.7,0 -0.2,-0.99 7.4,0 c 3.2,0 4.5,-2.15 4.5,-4.17 0,-3.45 -3.5,-6.45 -7.7,-6.45 l -5.7,0 c -1,0 -1.1,0.05 -1.1,0.36 0,0.03 0,0.2 0.2,0.72 l 2.4,9.54 0.2,0.99 2.2,8.5 c 0.2,1.08 0.3,1.19 1.7,1.19 l 5.3,0 0.6,1.25 -12.7,0 c -0.7,0 -1.1,0 -1.1,-0.77 0,-0.48 0.4,-0.48 1.1,-0.48 0,0 0.7,0 1.3,-0.08 0.8,-0.06 0.8,-0.14 0.8,-0.49 0,-0.06 0,-0.23 -0.1,-0.76 z" /></g>    </g>
    <path
       inkscape:connector-curvature="0"
       id="path9012-3"
       d="m 229.53155,716.83733 0,117.25073"
       style="fill:none;fill-rule:evenodd;stroke:#000000;stroke-width:3;stroke-linecap:butt;stroke-linejoin:miter;stroke-miterlimit:4;stroke-dasharray:none;stroke-opacity:1;marker-end:url(#marker9014-7)" />
    <path
       inkscape:connector-curvature="0"
       id="path9012-3-1"
       d="m 68.885746,717.34027 0,117.25073"
       style="fill:none;fill-rule:evenodd;stroke:#000000;stroke-width:3;stroke-linecap:butt;stroke-linejoin:miter;stroke-miterlimit:4;stroke-dasharray:none;stroke-opacity:1;marker-end:url(#marker9014-7-7)" />
    <path
       style="fill:none;fill-rule:evenodd;stroke:#000000;stroke-width:3;stroke-linecap:butt;stroke-linejoin:miter;stroke-miterlimit:4;stroke-dasharray:none;stroke-opacity:1;marker-end:url(#marker9014)"
       d="m 84.836926,864.59907 117.250724,0"
       id="path3863"
       inkscape:connector-curvature="0" />
    <path
       style="fill:none;fill-rule:evenodd;stroke:#000000;stroke-width:3;stroke-linecap:butt;stroke-linejoin:miter;stroke-miterlimit:4;stroke-dasharray:none;stroke-opacity:1;marker-end:url(#marker9014-7)"
       d="m 229.53155,884.83733 0,117.25067"
       id="path3869"
       inkscape:connector-curvature="0" />
    <path
       style="fill:none;fill-rule:evenodd;stroke:#000000;stroke-width:3;stroke-linecap:butt;stroke-linejoin:miter;stroke-miterlimit:4;stroke-dasharray:none;stroke-opacity:1;marker-end:url(#marker9014-7-7)"
       d="m 68.885746,1011.0137 0,-117.25076"
       id="path3871"
       inkscape:connector-curvature="0" />
    <path
       inkscape:connector-curvature="0"
       id="path3873"
       d="m 84.836926,1032.5991 117.250724,0"
       style="fill:none;fill-rule:evenodd;stroke:#000000;stroke-width:3;stroke-linecap:butt;stroke-linejoin:miter;stroke-miterlimit:4;stroke-dasharray:none;stroke-opacity:1;marker-end:url(#marker9014)" />
    <g
       id="g3879"
       transform="matrix(0.54199527,0,0,0.54199527,-387.68105,477.54171)">
      <g
         word-spacing="normal"
         letter-spacing="normal"
         font-size-adjust="none"
         font-stretch="normal"
         font-weight="normal"
         font-variant="normal"
         font-style="normal"
         stroke-miterlimit="10.433"
         xml:space="preserve"
         transform="matrix(1.0629921,0,0,-1.0629921,-186.02362,789.27165)"
         id="g3881"
         style="font-style:normal;font-variant:normal;font-weight:normal;font-stretch:normal;letter-spacing:normal;word-spacing:normal;text-anchor:start;fill:none;fill-opacity:1;fill-rule:evenodd;stroke:#000000;stroke-linecap:butt;stroke-linejoin:miter;stroke-miterlimit:10.43299961;stroke-dasharray:none;stroke-dashoffset:0;stroke-opacity:1"><path
           id="path3883"
           d="m 1251.3,374.79 0.2,0.35 0.3,0.33 0.2,0.31 0.2,0.3 0.2,0.27 0.3,0.25 0.2,0.24 0.2,0.22 0.2,0.2 0.2,0.19 0.2,0.17 0.2,0.16 0.2,0.14 0.2,0.13 0.2,0.12 0.2,0.11 0.2,0.09 0.2,0.09 0.2,0.07 0.2,0.07 0.2,0.06 0.2,0.05 0.2,0.04 0.2,0.04 0.2,0.03 0.1,0.02 0.4,0.04 0.4,0.03 0.3,0.02 c 0.6,0.04 0.6,0.89 0.6,0.95 0,0.39 -0.2,0.59 -0.6,0.59 -1.3,0 -2.7,-0.15 -4.1,-0.15 -1.6,0 -3.3,0.15 -4.9,0.15 -0.3,0 -1,0 -1,-0.95 0,-0.55 0.5,-0.59 0.8,-0.59 1.4,-0.1 2.3,-0.6 2.3,-1.64 0,-0.75 -0.7,-1.85 -0.7,-1.9 l -15.3,-24.31 -3.4,26.35 c 0,0.84 1.1,1.5 3.4,1.5 0.7,0 1.3,0 1.3,1 0,0.43 -0.4,0.54 -0.7,0.54 -2,0 -4.2,-0.15 -6.2,-0.15 -0.9,0 -1.8,0.04 -2.7,0.04 -0.9,0 -1.9,0.11 -2.7,0.11 -0.4,0 -1,0 -1,-0.95 0,-0.59 0.5,-0.59 1.3,-0.59 2.8,0 2.8,-0.46 3,-1.69 l 3.9,-30.75 c 0.2,-1 0.3,-1.14 1,-1.14 0.8,0 1,0.25 1.4,0.89 z"
           inkscape:connector-curvature="0"
           style="fill:#000000;stroke-width:0" /></g>    </g>
    <g
       id="g3885"
       transform="matrix(0.54199527,0,0,0.54199527,-378.21951,645.7421)">
      <g
         word-spacing="normal"
         letter-spacing="normal"
         font-size-adjust="none"
         font-stretch="normal"
         font-weight="normal"
         font-variant="normal"
         font-style="normal"
         stroke-miterlimit="10.433"
         xml:space="preserve"
         transform="matrix(1.0629921,0,0,-1.0629921,-186.02362,789.27165)"
         id="g3887"
         style="font-style:normal;font-variant:normal;font-weight:normal;font-stretch:normal;letter-spacing:normal;word-spacing:normal;text-anchor:start;fill:none;fill-opacity:1;fill-rule:evenodd;stroke:#000000;stroke-linecap:butt;stroke-linejoin:miter;stroke-miterlimit:10.43299961;stroke-dasharray:none;stroke-dashoffset:0;stroke-opacity:1"><path
           id="path3889"
           d="m 1229,366.57 0,0.01 -0.1,0.02 0,0.02 0,0.01 0,0.02 0,0.03 0,0.02 0,0.02 0,0.02 0,0.03 0,0.02 0,0.03 -0.1,0.05 0,0.05 0,0.05 0,0.05 0,0.02 0,0.03 -0.1,0.02 0,0.03 0,0.02 0,0.02 0,0.02 0,0.02 0,0.02 0,0.02 0,0.01 0,0.02 c 0,0.05 0.9,0.75 1.5,1.14 l 8.7,6.73 c 4.7,3.44 6.6,3.63 8.1,3.79 0.4,0.04 0.9,0.09 0.9,1 0,0.18 -0.2,0.54 -0.6,0.54 -1.1,0 -2.3,-0.15 -3.5,-0.15 -1.8,0 -3.7,0.15 -5.5,0.15 -0.4,0 -1,0 -1,-1 0,-0.34 0.3,-0.5 0.6,-0.54 1.1,-0.1 1.6,-0.35 1.6,-1.05 0,-0.89 -1.5,-2.05 -1.8,-2.3 l -19.5,-14.94 4,15.99 c 0.5,1.8 0.6,2.3 4.2,2.3 1.3,0 1.7,0 1.7,1 0,0.43 -0.4,0.54 -0.7,0.54 -1.4,0 -5,-0.15 -6.4,-0.15 -1.4,0 -4.9,0.15 -6.4,0.15 -0.3,0 -1,0 -1,-0.95 0,-0.59 0.5,-0.59 1.5,-0.59 0.6,0 1.5,-0.05 2.1,-0.1 0.8,-0.11 1.1,-0.25 1.1,-0.79 0,-0.21 -0.1,-0.36 -0.2,-0.96 l -6.7,-26.75 c -0.5,-1.95 -0.6,-2.34 -4.5,-2.34 -0.9,0 -1.4,0 -1.4,-0.95 0,-0.6 0.6,-0.6 0.7,-0.6 1.4,0 5,0.16 6.4,0.16 1,0 2.1,-0.06 3.2,-0.06 1,0 2.1,-0.1 3.2,-0.1 0.3,0 1,0 1,1 0,0.55 -0.5,0.55 -1.4,0.55 -1.8,0 -3.2,0 -3.2,0.89 0,0.36 0.3,1.45 0.4,2.2 0.7,2.58 1.4,5.22 2,7.81 l 7.4,5.79 5.8,-13.41 c 0.6,-1.34 0.6,-1.44 0.6,-1.73 0,-1.5 -2.1,-1.55 -2.6,-1.55 -0.5,0 -1.1,0 -1.1,-1 0,-0.55 0.6,-0.55 0.7,-0.55 2,0 4.1,0.16 6.1,0.16 1.1,0 3.8,-0.16 4.9,-0.16 0.2,0 0.9,0 0.9,1 0,0.55 -0.6,0.55 -1,0.55 -2.1,0.05 -2.7,0.5 -3.5,2.23 z"
           inkscape:connector-curvature="0"
           style="fill:#000000;stroke-width:0" /><path
           id="path3891"
           d="m 1253.8,369.15 0,-0.04 0,-0.05 0,-0.05 0,-0.04 -0.1,-0.05 0,-0.06 0,-0.05 0,-0.05 0,-0.11 -0.1,-0.11 0,-0.12 0,-0.11 0,-0.05 0,-0.05 -0.1,-0.05 0,-0.05 0,-0.05 0,-0.04 0,-0.05 0,-0.04 0,-0.03 0,-0.04 0,-0.03 0,-0.03 0,-0.02 0,-0.02 0,-0.01 0,-0.01 0,-0.01 0,0 c 0,-0.77 0.6,-1.11 1.2,-1.11 0.6,0 1.1,0.45 1.3,0.76 0.2,0.32 0.5,1.42 0.6,2.16 0.2,0.66 0.6,2.26 0.8,3.14 0.2,0.77 0.4,1.53 0.6,2.33 0.4,1.44 0.4,1.7 1.4,3.14 1,1.39 2.7,3.2 5.3,3.2 2,0 2,-1.78 2,-2.44 0,-2.09 -1.5,-5.95 -2,-7.42 -0.4,-0.98 -0.5,-1.29 -0.5,-1.89 0,-1.84 1.5,-2.98 3.3,-2.98 3.4,0 5,4.79 5,5.33 0,0.45 -0.5,0.45 -0.6,0.45 -0.5,0 -0.5,-0.2 -0.6,-0.6 -0.8,-2.78 -2.3,-4.21 -3.7,-4.21 -0.8,0 -0.9,0.48 -0.9,1.21 0,0.8 0.2,1.25 0.8,2.83 0.4,1.08 1.9,4.77 1.9,6.72 0,3.39 -2.7,3.97 -4.6,3.97 -2.9,0 -4.8,-1.77 -5.9,-3.16 -0.2,2.39 -2.3,3.16 -3.7,3.16 -1.5,0 -2.3,-1.08 -2.8,-1.87 -0.7,-1.29 -1.2,-3.29 -1.2,-3.46 0,-0.45 0.5,-0.45 0.6,-0.45 0.5,0 0.5,0.11 0.8,1.05 0.5,2.06 1.2,3.76 2.5,3.76 0.9,0 1.1,-0.76 1.1,-1.7 0,-0.67 -0.3,-1.95 -0.5,-2.89 -0.3,-0.96 -0.6,-2.38 -0.8,-3.14 z"
           inkscape:connector-curvature="0"
           style="fill:#000000;stroke-width:0" /></g>    </g>
    <g
       transform="matrix(0.54199527,0,0,0.54199527,-378.21951,811.7421)"
       id="g3893">
      <g
         style="font-style:normal;font-variant:normal;font-weight:normal;font-stretch:normal;letter-spacing:normal;word-spacing:normal;text-anchor:start;fill:none;fill-opacity:1;fill-rule:evenodd;stroke:#000000;stroke-linecap:butt;stroke-linejoin:miter;stroke-miterlimit:10.43299961;stroke-dasharray:none;stroke-dashoffset:0;stroke-opacity:1"
         id="g3895"
         transform="matrix(1.0629921,0,0,-1.0629921,-186.02362,789.27165)"
         xml:space="preserve"
         stroke-miterlimit="10.433"
         font-style="normal"
         font-variant="normal"
         font-weight="normal"
         font-stretch="normal"
         font-size-adjust="none"
         letter-spacing="normal"
         word-spacing="normal"><path
           style="fill:#000000;stroke-width:0"
           inkscape:connector-curvature="0"
           d="m 1229,366.57 0,0.01 -0.1,0.02 0,0.02 0,0.01 0,0.02 0,0.03 0,0.02 0,0.02 0,0.02 0,0.03 0,0.02 0,0.03 -0.1,0.05 0,0.05 0,0.05 0,0.05 0,0.02 0,0.03 -0.1,0.02 0,0.03 0,0.02 0,0.02 0,0.02 0,0.02 0,0.02 0,0.02 0,0.01 0,0.02 c 0,0.05 0.9,0.75 1.5,1.14 l 8.7,6.73 c 4.7,3.44 6.6,3.63 8.1,3.79 0.4,0.04 0.9,0.09 0.9,1 0,0.18 -0.2,0.54 -0.6,0.54 -1.1,0 -2.3,-0.15 -3.5,-0.15 -1.8,0 -3.7,0.15 -5.5,0.15 -0.4,0 -1,0 -1,-1 0,-0.34 0.3,-0.5 0.6,-0.54 1.1,-0.1 1.6,-0.35 1.6,-1.05 0,-0.89 -1.5,-2.05 -1.8,-2.3 l -19.5,-14.94 4,15.99 c 0.5,1.8 0.6,2.3 4.2,2.3 1.3,0 1.7,0 1.7,1 0,0.43 -0.4,0.54 -0.7,0.54 -1.4,0 -5,-0.15 -6.4,-0.15 -1.4,0 -4.9,0.15 -6.4,0.15 -0.3,0 -1,0 -1,-0.95 0,-0.59 0.5,-0.59 1.5,-0.59 0.6,0 1.5,-0.05 2.1,-0.1 0.8,-0.11 1.1,-0.25 1.1,-0.79 0,-0.21 -0.1,-0.36 -0.2,-0.96 l -6.7,-26.75 c -0.5,-1.95 -0.6,-2.34 -4.5,-2.34 -0.9,0 -1.4,0 -1.4,-0.95 0,-0.6 0.6,-0.6 0.7,-0.6 1.4,0 5,0.16 6.4,0.16 1,0 2.1,-0.06 3.2,-0.06 1,0 2.1,-0.1 3.2,-0.1 0.3,0 1,0 1,1 0,0.55 -0.5,0.55 -1.4,0.55 -1.8,0 -3.2,0 -3.2,0.89 0,0.36 0.3,1.45 0.4,2.2 0.7,2.58 1.4,5.22 2,7.81 l 7.4,5.79 5.8,-13.41 c 0.6,-1.34 0.6,-1.44 0.6,-1.73 0,-1.5 -2.1,-1.55 -2.6,-1.55 -0.5,0 -1.1,0 -1.1,-1 0,-0.55 0.6,-0.55 0.7,-0.55 2,0 4.1,0.16 6.1,0.16 1.1,0 3.8,-0.16 4.9,-0.16 0.2,0 0.9,0 0.9,1 0,0.55 -0.6,0.55 -1,0.55 -2.1,0.05 -2.7,0.5 -3.5,2.23 z"
           id="path3897" /><path
           style="fill:#000000;stroke-width:0"
           inkscape:connector-curvature="0"
           d="m 1253.8,369.15 0,-0.04 0,-0.05 0,-0.05 0,-0.04 -0.1,-0.05 0,-0.06 0,-0.05 0,-0.05 0,-0.11 -0.1,-0.11 0,-0.12 0,-0.11 0,-0.05 0,-0.05 -0.1,-0.05 0,-0.05 0,-0.05 0,-0.04 0,-0.05 0,-0.04 0,-0.03 0,-0.04 0,-0.03 0,-0.03 0,-0.02 0,-0.02 0,-0.01 0,-0.01 0,-0.01 0,0 c 0,-0.77 0.6,-1.11 1.2,-1.11 0.6,0 1.1,0.45 1.3,0.76 0.2,0.32 0.5,1.42 0.6,2.16 0.2,0.66 0.6,2.26 0.8,3.14 0.2,0.77 0.4,1.53 0.6,2.33 0.4,1.44 0.4,1.7 1.4,3.14 1,1.39 2.7,3.2 5.3,3.2 2,0 2,-1.78 2,-2.44 0,-2.09 -1.5,-5.95 -2,-7.42 -0.4,-0.98 -0.5,-1.29 -0.5,-1.89 0,-1.84 1.5,-2.98 3.3,-2.98 3.4,0 5,4.79 5,5.33 0,0.45 -0.5,0.45 -0.6,0.45 -0.5,0 -0.5,-0.2 -0.6,-0.6 -0.8,-2.78 -2.3,-4.21 -3.7,-4.21 -0.8,0 -0.9,0.48 -0.9,1.21 0,0.8 0.2,1.25 0.8,2.83 0.4,1.08 1.9,4.77 1.9,6.72 0,3.39 -2.7,3.97 -4.6,3.97 -2.9,0 -4.8,-1.77 -5.9,-3.16 -0.2,2.39 -2.3,3.16 -3.7,3.16 -1.5,0 -2.3,-1.08 -2.8,-1.87 -0.7,-1.29 -1.2,-3.29 -1.2,-3.46 0,-0.45 0.5,-0.45 0.6,-0.45 0.5,0 0.5,0.11 0.8,1.05 0.5,2.06 1.2,3.76 2.5,3.76 0.9,0 1.1,-0.76 1.1,-1.7 0,-0.67 -0.3,-1.95 -0.5,-2.89 -0.3,-0.96 -0.6,-2.38 -0.8,-3.14 z"
           id="path3899" /></g>    </g>
    <g
       id="g3901"
       transform="matrix(0.54199527,0,0,0.54199527,-550.21951,811.7421)">
      <g
         word-spacing="normal"
         letter-spacing="normal"
         font-size-adjust="none"
         font-stretch="normal"
         font-weight="normal"
         font-variant="normal"
         font-style="normal"
         stroke-miterlimit="10.433"
         xml:space="preserve"
         transform="matrix(1.0629921,0,0,-1.0629921,-186.02362,789.27165)"
         id="g3903"
         style="font-style:normal;font-variant:normal;font-weight:normal;font-stretch:normal;letter-spacing:normal;word-spacing:normal;text-anchor:start;fill:none;fill-opacity:1;fill-rule:evenodd;stroke:#000000;stroke-linecap:butt;stroke-linejoin:miter;stroke-miterlimit:10.43299961;stroke-dasharray:none;stroke-dashoffset:0;stroke-opacity:1"><path
           id="path3905"
           d="m 1229,366.57 0,0.01 -0.1,0.02 0,0.02 0,0.01 0,0.02 0,0.03 0,0.02 0,0.02 0,0.02 0,0.03 0,0.02 0,0.03 -0.1,0.05 0,0.05 0,0.05 0,0.05 0,0.02 0,0.03 -0.1,0.02 0,0.03 0,0.02 0,0.02 0,0.02 0,0.02 0,0.02 0,0.02 0,0.01 0,0.02 c 0,0.05 0.9,0.75 1.5,1.14 l 8.7,6.73 c 4.7,3.44 6.6,3.63 8.1,3.79 0.4,0.04 0.9,0.09 0.9,1 0,0.18 -0.2,0.54 -0.6,0.54 -1.1,0 -2.3,-0.15 -3.5,-0.15 -1.8,0 -3.7,0.15 -5.5,0.15 -0.4,0 -1,0 -1,-1 0,-0.34 0.3,-0.5 0.6,-0.54 1.1,-0.1 1.6,-0.35 1.6,-1.05 0,-0.89 -1.5,-2.05 -1.8,-2.3 l -19.5,-14.94 4,15.99 c 0.5,1.8 0.6,2.3 4.2,2.3 1.3,0 1.7,0 1.7,1 0,0.43 -0.4,0.54 -0.7,0.54 -1.4,0 -5,-0.15 -6.4,-0.15 -1.4,0 -4.9,0.15 -6.4,0.15 -0.3,0 -1,0 -1,-0.95 0,-0.59 0.5,-0.59 1.5,-0.59 0.6,0 1.5,-0.05 2.1,-0.1 0.8,-0.11 1.1,-0.25 1.1,-0.79 0,-0.21 -0.1,-0.36 -0.2,-0.96 l -6.7,-26.75 c -0.5,-1.95 -0.6,-2.34 -4.5,-2.34 -0.9,0 -1.4,0 -1.4,-0.95 0,-0.6 0.6,-0.6 0.7,-0.6 1.4,0 5,0.16 6.4,0.16 1,0 2.1,-0.06 3.2,-0.06 1,0 2.1,-0.1 3.2,-0.1 0.3,0 1,0 1,1 0,0.55 -0.5,0.55 -1.4,0.55 -1.8,0 -3.2,0 -3.2,0.89 0,0.36 0.3,1.45 0.4,2.2 0.7,2.58 1.4,5.22 2,7.81 l 7.4,5.79 5.8,-13.41 c 0.6,-1.34 0.6,-1.44 0.6,-1.73 0,-1.5 -2.1,-1.55 -2.6,-1.55 -0.5,0 -1.1,0 -1.1,-1 0,-0.55 0.6,-0.55 0.7,-0.55 2,0 4.1,0.16 6.1,0.16 1.1,0 3.8,-0.16 4.9,-0.16 0.2,0 0.9,0 0.9,1 0,0.55 -0.6,0.55 -1,0.55 -2.1,0.05 -2.7,0.5 -3.5,2.23 z"
           inkscape:connector-curvature="0"
           style="fill:#000000;stroke-width:0" /><path
           id="path3907"
           d="m 1253.8,369.15 0,-0.04 0,-0.05 0,-0.05 0,-0.04 -0.1,-0.05 0,-0.06 0,-0.05 0,-0.05 0,-0.11 -0.1,-0.11 0,-0.12 0,-0.11 0,-0.05 0,-0.05 -0.1,-0.05 0,-0.05 0,-0.05 0,-0.04 0,-0.05 0,-0.04 0,-0.03 0,-0.04 0,-0.03 0,-0.03 0,-0.02 0,-0.02 0,-0.01 0,-0.01 0,-0.01 0,0 c 0,-0.77 0.6,-1.11 1.2,-1.11 0.6,0 1.1,0.45 1.3,0.76 0.2,0.32 0.5,1.42 0.6,2.16 0.2,0.66 0.6,2.26 0.8,3.14 0.2,0.77 0.4,1.53 0.6,2.33 0.4,1.44 0.4,1.7 1.4,3.14 1,1.39 2.7,3.2 5.3,3.2 2,0 2,-1.78 2,-2.44 0,-2.09 -1.5,-5.95 -2,-7.42 -0.4,-0.98 -0.5,-1.29 -0.5,-1.89 0,-1.84 1.5,-2.98 3.3,-2.98 3.4,0 5,4.79 5,5.33 0,0.45 -0.5,0.45 -0.6,0.45 -0.5,0 -0.5,-0.2 -0.6,-0.6 -0.8,-2.78 -2.3,-4.21 -3.7,-4.21 -0.8,0 -0.9,0.48 -0.9,1.21 0,0.8 0.2,1.25 0.8,2.83 0.4,1.08 1.9,4.77 1.9,6.72 0,3.39 -2.7,3.97 -4.6,3.97 -2.9,0 -4.8,-1.77 -5.9,-3.16 -0.2,2.39 -2.3,3.16 -3.7,3.16 -1.5,0 -2.3,-1.08 -2.8,-1.87 -0.7,-1.29 -1.2,-3.29 -1.2,-3.46 0,-0.45 0.5,-0.45 0.6,-0.45 0.5,0 0.5,0.11 0.8,1.05 0.5,2.06 1.2,3.76 2.5,3.76 0.9,0 1.1,-0.76 1.1,-1.7 0,-0.67 -0.3,-1.95 -0.5,-2.89 -0.3,-0.96 -0.6,-2.38 -0.8,-3.14 z"
           inkscape:connector-curvature="0"
           style="fill:#000000;stroke-width:0" /></g>    </g>
    <g
       transform="matrix(0.54199527,0,0,0.54199527,-548.21951,641.7421)"
       id="g3909">
      <g
         style="font-style:normal;font-variant:normal;font-weight:normal;font-stretch:normal;letter-spacing:normal;word-spacing:normal;text-anchor:start;fill:none;fill-opacity:1;fill-rule:evenodd;stroke:#000000;stroke-linecap:butt;stroke-linejoin:miter;stroke-miterlimit:10.43299961;stroke-dasharray:none;stroke-dashoffset:0;stroke-opacity:1"
         id="g3911"
         transform="matrix(1.0629921,0,0,-1.0629921,-186.02362,789.27165)"
         xml:space="preserve"
         stroke-miterlimit="10.433"
         font-style="normal"
         font-variant="normal"
         font-weight="normal"
         font-stretch="normal"
         font-size-adjust="none"
         letter-spacing="normal"
         word-spacing="normal"><path
           style="fill:#000000;stroke-width:0"
           inkscape:connector-curvature="0"
           d="m 1229,366.57 0,0.01 -0.1,0.02 0,0.02 0,0.01 0,0.02 0,0.03 0,0.02 0,0.02 0,0.02 0,0.03 0,0.02 0,0.03 -0.1,0.05 0,0.05 0,0.05 0,0.05 0,0.02 0,0.03 -0.1,0.02 0,0.03 0,0.02 0,0.02 0,0.02 0,0.02 0,0.02 0,0.02 0,0.01 0,0.02 c 0,0.05 0.9,0.75 1.5,1.14 l 8.7,6.73 c 4.7,3.44 6.6,3.63 8.1,3.79 0.4,0.04 0.9,0.09 0.9,1 0,0.18 -0.2,0.54 -0.6,0.54 -1.1,0 -2.3,-0.15 -3.5,-0.15 -1.8,0 -3.7,0.15 -5.5,0.15 -0.4,0 -1,0 -1,-1 0,-0.34 0.3,-0.5 0.6,-0.54 1.1,-0.1 1.6,-0.35 1.6,-1.05 0,-0.89 -1.5,-2.05 -1.8,-2.3 l -19.5,-14.94 4,15.99 c 0.5,1.8 0.6,2.3 4.2,2.3 1.3,0 1.7,0 1.7,1 0,0.43 -0.4,0.54 -0.7,0.54 -1.4,0 -5,-0.15 -6.4,-0.15 -1.4,0 -4.9,0.15 -6.4,0.15 -0.3,0 -1,0 -1,-0.95 0,-0.59 0.5,-0.59 1.5,-0.59 0.6,0 1.5,-0.05 2.1,-0.1 0.8,-0.11 1.1,-0.25 1.1,-0.79 0,-0.21 -0.1,-0.36 -0.2,-0.96 l -6.7,-26.75 c -0.5,-1.95 -0.6,-2.34 -4.5,-2.34 -0.9,0 -1.4,0 -1.4,-0.95 0,-0.6 0.6,-0.6 0.7,-0.6 1.4,0 5,0.16 6.4,0.16 1,0 2.1,-0.06 3.2,-0.06 1,0 2.1,-0.1 3.2,-0.1 0.3,0 1,0 1,1 0,0.55 -0.5,0.55 -1.4,0.55 -1.8,0 -3.2,0 -3.2,0.89 0,0.36 0.3,1.45 0.4,2.2 0.7,2.58 1.4,5.22 2,7.81 l 7.4,5.79 5.8,-13.41 c 0.6,-1.34 0.6,-1.44 0.6,-1.73 0,-1.5 -2.1,-1.55 -2.6,-1.55 -0.5,0 -1.1,0 -1.1,-1 0,-0.55 0.6,-0.55 0.7,-0.55 2,0 4.1,0.16 6.1,0.16 1.1,0 3.8,-0.16 4.9,-0.16 0.2,0 0.9,0 0.9,1 0,0.55 -0.6,0.55 -1,0.55 -2.1,0.05 -2.7,0.5 -3.5,2.23 z"
           id="path3913" /><path
           style="fill:#000000;stroke-width:0"
           inkscape:connector-curvature="0"
           d="m 1253.8,369.15 0,-0.04 0,-0.05 0,-0.05 0,-0.04 -0.1,-0.05 0,-0.06 0,-0.05 0,-0.05 0,-0.11 -0.1,-0.11 0,-0.12 0,-0.11 0,-0.05 0,-0.05 -0.1,-0.05 0,-0.05 0,-0.05 0,-0.04 0,-0.05 0,-0.04 0,-0.03 0,-0.04 0,-0.03 0,-0.03 0,-0.02 0,-0.02 0,-0.01 0,-0.01 0,-0.01 0,0 c 0,-0.77 0.6,-1.11 1.2,-1.11 0.6,0 1.1,0.45 1.3,0.76 0.2,0.32 0.5,1.42 0.6,2.16 0.2,0.66 0.6,2.26 0.8,3.14 0.2,0.77 0.4,1.53 0.6,2.33 0.4,1.44 0.4,1.7 1.4,3.14 1,1.39 2.7,3.2 5.3,3.2 2,0 2,-1.78 2,-2.44 0,-2.09 -1.5,-5.95 -2,-7.42 -0.4,-0.98 -0.5,-1.29 -0.5,-1.89 0,-1.84 1.5,-2.98 3.3,-2.98 3.4,0 5,4.79 5,5.33 0,0.45 -0.5,0.45 -0.6,0.45 -0.5,0 -0.5,-0.2 -0.6,-0.6 -0.8,-2.78 -2.3,-4.21 -3.7,-4.21 -0.8,0 -0.9,0.48 -0.9,1.21 0,0.8 0.2,1.25 0.8,2.83 0.4,1.08 1.9,4.77 1.9,6.72 0,3.39 -2.7,3.97 -4.6,3.97 -2.9,0 -4.8,-1.77 -5.9,-3.16 -0.2,2.39 -2.3,3.16 -3.7,3.16 -1.5,0 -2.3,-1.08 -2.8,-1.87 -0.7,-1.29 -1.2,-3.29 -1.2,-3.46 0,-0.45 0.5,-0.45 0.6,-0.45 0.5,0 0.5,0.11 0.8,1.05 0.5,2.06 1.2,3.76 2.5,3.76 0.9,0 1.1,-0.76 1.1,-1.7 0,-0.67 -0.3,-1.95 -0.5,-2.89 -0.3,-0.96 -0.6,-2.38 -0.8,-3.14 z"
           id="path3915" /></g>    </g>
    <g
       id="g4491"
       transform="translate(75.633426,419.38546)">
      <g
         word-spacing="normal"
         letter-spacing="normal"
         font-size-adjust="none"
         font-stretch="normal"
         font-weight="normal"
         font-variant="normal"
         font-style="normal"
         stroke-miterlimit="10.433"
         xml:space="preserve"
         transform="matrix(0.57142857,0,0,-0.57142857,-100,600)"
         id="g4493"
         style="font-style:normal;font-variant:normal;font-weight:normal;font-stretch:normal;letter-spacing:normal;word-spacing:normal;text-anchor:start;fill:none;fill-opacity:1;fill-rule:evenodd;stroke:#000000;stroke-linecap:butt;stroke-linejoin:miter;stroke-miterlimit:10.43299961;stroke-dasharray:none;stroke-dashoffset:0;stroke-opacity:1"><path
           id="path4495"
           d="m 475.39,412.92 0.72,0.07 0.71,0.09 0.69,0.11 0.67,0.14 0.66,0.15 0.64,0.18 0.63,0.2 0.61,0.21 0.59,0.23 0.58,0.26 0.55,0.26 0.54,0.29 0.51,0.3 0.5,0.31 0.47,0.33 0.45,0.34 0.43,0.36 0.41,0.37 0.38,0.37 0.36,0.4 0.33,0.4 0.31,0.41 0.28,0.42 0.25,0.42 0.23,0.44 0.19,0.44 0.17,0.45 0.14,0.45 0.11,0.46 0.08,0.47 0.05,0.46 0.01,0.47 c 0,5.19 -5.67,9.72 -13.25,10.32 l 0,-1.1 c 6.88,-0.79 8.29,-5.37 8.29,-9.17 0,-2.98 -0.75,-8.31 -8.29,-9.2 l 0,18.37 0,1.1 0,2.79 c 0,1.69 0,2.39 4.74,2.39 l 1.64,0 0,1.55 c -1.78,-0.16 -6.38,-0.16 -8.41,-0.16 -2.04,0 -6.68,0 -8.48,0.16 l 0,-1.55 1.66,0 c 4.73,0 4.73,-0.65 4.73,-2.39 l 0,-2.79 0,-1.14 0,-18.29 c -7.08,0.94 -7.98,6.04 -7.98,9.11 0,2.6 0.5,8.18 7.98,9.18 l 0,1.14 c -7.63,-0.74 -12.95,-5.33 -12.95,-10.27 0,-5.12 5.51,-9.56 12.95,-10.31 l 0,-2.78 c 0,-1.71 0,-2.39 -4.73,-2.39 l -1.66,0 0,-1.55 c 1.8,0.16 6.39,0.16 8.42,0.16 2.05,0 6.69,0 8.47,-0.16 l 0,1.55 -1.64,0 c -4.74,0 -4.74,0.64 -4.74,2.39 z"
           inkscape:connector-curvature="0"
           style="fill:#000000;stroke-width:0" /><path
           id="path4497"
           d="m 498.14,401.48 -0.02,-0.11 -0.03,-0.1 -0.03,-0.1 -0.03,-0.09 -0.03,-0.09 -0.03,-0.09 -0.03,-0.08 -0.03,-0.07 -0.04,-0.07 -0.04,-0.07 -0.04,-0.06 -0.05,-0.06 -0.05,-0.05 -0.06,-0.05 -0.06,-0.05 -0.07,-0.04 -0.08,-0.04 -0.09,-0.03 -0.09,-0.04 -0.1,-0.03 -0.11,-0.02 -0.06,-0.02 -0.06,-0.01 -0.07,-0.01 -0.06,-0.01 -0.07,-0.01 -0.07,-0.01 -0.08,0 -0.07,-0.01 -0.09,-0.01 -0.08,0 -0.08,-0.01 -0.09,-0.01 -0.1,0 -0.09,0 -0.1,-0.01 -0.1,0 -0.11,0 -0.11,0 -0.11,-0.01 -0.12,0 -0.12,0 -0.12,0 c -0.58,0 -1.03,0 -1.03,-0.73 0,-0.52 0.4,-0.52 1.03,-0.52 l 13.48,0 c 5.86,0 10.36,4 10.36,7.45 0,2.49 -2.26,4.61 -5.97,4.99 4.22,0.76 7.75,3.42 7.75,6.41 0,2.65 -2.69,4.95 -7.22,4.95 l -0.56,-1.25 c 3.56,0 4.36,-2.35 4.36,-3.66 0,-2.83 -3.17,-6.03 -7.84,-6.03 l -5.71,0 -0.25,-0.98 7.39,0 c 3.27,0 4.54,-2.16 4.54,-4.18 0,-3.45 -3.54,-6.45 -7.74,-6.45 l -5.62,0 c -1.08,0 -1.11,0.05 -1.11,0.36 0,0.03 0,0.2 0.14,0.72 l 2.4,9.55 0.25,0.98 2.13,8.5 c 0.26,1.08 0.31,1.19 1.76,1.19 l 5.3,0 0.56,1.25 -12.68,0 c -0.66,0 -1.11,0 -1.11,-0.77 0,-0.48 0.42,-0.48 1.11,-0.48 0.03,0 0.7,0 1.32,-0.08 0.74,-0.06 0.8,-0.14 0.8,-0.48 0,-0.07 0,-0.24 -0.14,-0.77 z"
           inkscape:connector-curvature="0"
           style="fill:#000000;stroke-width:0" /></g>    </g>
    <g
       transform="translate(-140.36658,419.8884)"
       id="g4692">
      <g
         style="font-style:normal;font-variant:normal;font-weight:normal;font-stretch:normal;letter-spacing:normal;word-spacing:normal;text-anchor:start;fill:none;fill-opacity:1;fill-rule:evenodd;stroke:#000000;stroke-linecap:butt;stroke-linejoin:miter;stroke-miterlimit:10.43299961;stroke-dasharray:none;stroke-dashoffset:0;stroke-opacity:1"
         id="g4694"
         transform="matrix(0.57142857,0,0,-0.57142857,-100,600)"
         xml:space="preserve"
         stroke-miterlimit="10.433"
         font-style="normal"
         font-variant="normal"
         font-weight="normal"
         font-stretch="normal"
         font-size-adjust="none"
         letter-spacing="normal"
         word-spacing="normal"><path
           style="fill:#000000;stroke-width:0"
           inkscape:connector-curvature="0"
           d="m 475.39,412.92 0.72,0.07 0.71,0.09 0.69,0.11 0.67,0.14 0.66,0.15 0.64,0.18 0.63,0.2 0.61,0.21 0.59,0.23 0.58,0.26 0.55,0.26 0.54,0.29 0.51,0.3 0.5,0.31 0.47,0.33 0.45,0.34 0.43,0.36 0.41,0.37 0.38,0.37 0.36,0.4 0.33,0.4 0.31,0.41 0.28,0.42 0.25,0.42 0.23,0.44 0.19,0.44 0.17,0.45 0.14,0.45 0.11,0.46 0.08,0.47 0.05,0.46 0.01,0.47 c 0,5.19 -5.67,9.72 -13.25,10.32 l 0,-1.1 c 6.88,-0.79 8.29,-5.37 8.29,-9.17 0,-2.98 -0.75,-8.31 -8.29,-9.2 l 0,18.37 0,1.1 0,2.79 c 0,1.69 0,2.39 4.74,2.39 l 1.64,0 0,1.55 c -1.78,-0.16 -6.38,-0.16 -8.41,-0.16 -2.04,0 -6.68,0 -8.48,0.16 l 0,-1.55 1.66,0 c 4.73,0 4.73,-0.65 4.73,-2.39 l 0,-2.79 0,-1.14 0,-18.29 c -7.08,0.94 -7.98,6.04 -7.98,9.11 0,2.6 0.5,8.18 7.98,9.18 l 0,1.14 c -7.63,-0.74 -12.95,-5.33 -12.95,-10.27 0,-5.12 5.51,-9.56 12.95,-10.31 l 0,-2.78 c 0,-1.71 0,-2.39 -4.73,-2.39 l -1.66,0 0,-1.55 c 1.8,0.16 6.39,0.16 8.42,0.16 2.05,0 6.69,0 8.47,-0.16 l 0,1.55 -1.64,0 c -4.74,0 -4.74,0.64 -4.74,2.39 z"
           id="path4696" /><path
           style="fill:#000000;stroke-width:0"
           inkscape:connector-curvature="0"
           d="m 498.14,401.48 -0.02,-0.11 -0.03,-0.1 -0.03,-0.1 -0.03,-0.09 -0.03,-0.09 -0.03,-0.09 -0.03,-0.08 -0.03,-0.07 -0.04,-0.07 -0.04,-0.07 -0.04,-0.06 -0.05,-0.06 -0.05,-0.05 -0.06,-0.05 -0.06,-0.05 -0.07,-0.04 -0.08,-0.04 -0.09,-0.03 -0.09,-0.04 -0.1,-0.03 -0.11,-0.02 -0.06,-0.02 -0.06,-0.01 -0.07,-0.01 -0.06,-0.01 -0.07,-0.01 -0.07,-0.01 -0.08,0 -0.07,-0.01 -0.09,-0.01 -0.08,0 -0.08,-0.01 -0.09,-0.01 -0.1,0 -0.09,0 -0.1,-0.01 -0.1,0 -0.11,0 -0.11,0 -0.11,-0.01 -0.12,0 -0.12,0 -0.12,0 c -0.58,0 -1.03,0 -1.03,-0.73 0,-0.52 0.4,-0.52 1.03,-0.52 l 13.48,0 c 5.86,0 10.36,4 10.36,7.45 0,2.49 -2.26,4.61 -5.97,4.99 4.22,0.76 7.75,3.42 7.75,6.41 0,2.65 -2.69,4.95 -7.22,4.95 l -0.56,-1.25 c 3.56,0 4.36,-2.35 4.36,-3.66 0,-2.83 -3.17,-6.03 -7.84,-6.03 l -5.71,0 -0.25,-0.98 7.39,0 c 3.27,0 4.54,-2.16 4.54,-4.18 0,-3.45 -3.54,-6.45 -7.74,-6.45 l -5.62,0 c -1.08,0 -1.11,0.05 -1.11,0.36 0,0.03 0,0.2 0.14,0.72 l 2.4,9.55 0.25,0.98 2.13,8.5 c 0.26,1.08 0.31,1.19 1.76,1.19 l 5.3,0 0.56,1.25 -12.68,0 c -0.66,0 -1.11,0 -1.11,-0.77 0,-0.48 0.42,-0.48 1.11,-0.48 0.03,0 0.7,0 1.32,-0.08 0.74,-0.06 0.8,-0.14 0.8,-0.48 0,-0.07 0,-0.24 -0.14,-0.77 z"
           id="path4698" /></g>    </g>
  </g>
</svg>
